{
  "title": {
    "work": "Last Experiences",
    "education": "Education",
    "skills": "Skills",
    "languages": "Languages",
    "bibliography": "Bibliography"
  },
  "basics": {
    "name": "John DOE",
    "label": "Developer",
    "email": "john@doe",
    "phone": "00 00 00 00 00",
    "url": "dupin.frama.io/resume/",
    "location": {
      "address": "Address",
      "postalCode": "Postal Code",
      "city": "City"
    }
  },
  "work": [
  	{
      "name": "Employer",
  	  "location": {
          "city": "Paris"
  	  },
  	  "position": "DevOps/Lead Dev",
  	  "url": "https://example.com",
  	  "startDate": "2022-03-01",
  	  "summary": "Voluptas dolorem porro consequatur eos numquam asperiores laborum. At quos enim est ipsum occaecati. Rerum omnis dolor quisquam optio dignissimos facere libero atque. Ratione iure aut adipisci beatae aspernatur et ut ut.",
  	  "highlights": [
        "Highlight Voluptas dolorem porro consequatur eos numquam asperiores laborum. At quos enim est ipsum occaecati. Rerum omnis dolor quisquam optio dignissimos facere libero atque. Ratione iure aut adipisci beatae aspernatur et ut ut..",
        "Highlight #2.",
        "Highlight #3."
  	  ]
  	},
    {
      "name": "Employer",
      "location": {
          "city": "Paris"
      },
      "position": "DevOps/Lead Dev",
      "url": "https://example.com",
      "startDate": "2022-03-01",
      "summary": "Summary in few words.",
      "highlights": [
        "Highlight #1.",
        "Highlight #2.",
        "Highlight #3."
      ]
    }
  ],
  "education": [
    {
      "institution": "University of ...",
      "location": {
        "city": "Paris"
      },
      "url": "https://example.com",
      "area": "DataBases",
      "studyType": "Master",
      "endDate": "2016"
    },
    {
      "institution": "University of ...",
      "location": {
        "city": "Paris"
      },
      "url": "https://example.com",
      "studyType": "Licence",
      "endDate": "2014"
    }
  ],
  "skills": [
    {
      "name": "Programming",
      "keywords": [
        "Python",
        "Java/JEE",
        "C",
        "Object",
        "Functionnal",
        "Concurrent/Asynchrone",
        "Parallel/Multi-Thread"
      ]
    },
    {
      "name": "DataBases",
      "keywords": [
        "Oracle",
        "PL/SQL",
        "PostgreSQL",
        "MySQL",
        "SQLite"
      ]
    },
    {
      "name": "Tools",
      "keywords": [
        "Docker",
        "Prometheus / Grafana",
        "Git",
        "Bash/sh",
        "Vi/Ed"
      ]
    },
    {
      "name": "Analyse, Methodology",
      "keywords": [
        "Agile",
        "Merise",
        "UML",
        "TDD",
        "Architectures",
        "Clean Code"
      ]
    },
    {
      "name": "Systems & Networks",
      "keywords": [
        "UNIX/BSD/Linux",
        "IPv6",
        "HTTP",
        "DNS",
        "SSH",
        "SMTP"
      ]
    }
  ],
  "languages": [
    {
      "language": "English",
      "fluency": "Mother tongue"
    }
  ],
  "bibliography": [
    {
      "title": "Test-Driven Development",
      "author": "Kent Beck",
      "url": "https://www.goodreads.com/book/show/387190.Test_Driven_Development"
    },
    {
      "title": "Clean Code/Architecture",
      "author": "R. C. Martin",
      "url": "https://www.goodreads.com/book/show/3735293-clean-code"
    },
    {
      "title": "Refactoring",
      "author": "Martin Fowler",
      "url": "https://www.goodreads.com/book/show/44936.Refactoring"
    },
  	{
        "title": "Legacy Code",
  	  "author": "M. C. Feathers",
  	  "url": "https://www.goodreads.com/book/show/44919.Working_Effectively_with_Legacy_Code"
  	},
    {
      "title": "Design Patterns",
      "author": "Gang of Four",
      "url": "https://www.goodreads.com/book/show/85009.Design_Patterns"
    },
    {
      "title": "The Pragmatic Programmer",
      "author": "Andrew Hunt",
      "url": "https://www.goodreads.com/book/show/4099.The_Pragmatic_Programmer"
    },
    {
      "title": "Introduction to Algorithms",
      "author": "Cormen, Leiserson, Rivest, Stein",
      "url": "https://www.goodreads.com/book/show/108986.Introduction_to_Algorithms"
    },
    {
      "title": "Artificial Intelligence",
      "author": "Russell, Norvig",
      "url": "https://www.goodreads.com/book/show/27543.Artificial_Intelligence"
    },
    {
      "title": "Computer Networks",
      "author": "Andrew S. Tanenbaum",
      "url": "https://www.goodreads.com/book/show/166190.Computer_Networks"
    },
    {
      "title": "Modern Operating Systems",
      "author": "Andrew S. Tanenbaum",
      "url": "https://www.goodreads.com/book/show/166195.Modern_Operating_Systems"
    }
  ]
}
